127.0.0.1 - - [05/Jan/2024:09:42:36 +0530] "GET / HTTP/1.1" 404 751
0:0:0:0:0:0:0:1 - - [05/Jan/2024:09:42:37 +0530] "GET /EmpWebApp/Login.html HTTP/1.1" 304 -
0:0:0:0:0:0:0:1 - - [05/Jan/2024:10:05:20 +0530] "GET /EmpWebApp/Register.html HTTP/1.1" 200 1039
127.0.0.1 - - [05/Jan/2024:10:39:09 +0530] "GET / HTTP/1.1" 404 751
0:0:0:0:0:0:0:1 - - [05/Jan/2024:10:39:10 +0530] "GET /EmpWebApp/RegisterServlet HTTP/1.1" 500 1250
127.0.0.1 - - [05/Jan/2024:10:42:38 +0530] "GET / HTTP/1.1" 404 751
0:0:0:0:0:0:0:1 - - [05/Jan/2024:10:42:38 +0530] "GET /EmpWebApp/RegisterServlet HTTP/1.1" 500 1250
127.0.0.1 - - [05/Jan/2024:10:49:01 +0530] "GET / HTTP/1.1" 404 751
0:0:0:0:0:0:0:1 - - [05/Jan/2024:10:49:02 +0530] "GET /EmpWebApp/RegisterServlet HTTP/1.1" 500 3630
127.0.0.1 - - [05/Jan/2024:10:49:42 +0530] "GET / HTTP/1.1" 404 751
0:0:0:0:0:0:0:1 - - [05/Jan/2024:10:49:43 +0530] "GET /EmpWebApp/RegisterServlet HTTP/1.1" 500 1250
0:0:0:0:0:0:0:1 - - [05/Jan/2024:10:51:55 +0530] "GET /EmpWebApp/Register.html HTTP/1.1" 200 1039
0:0:0:0:0:0:0:1 - - [05/Jan/2024:10:52:32 +0530] "POST /EmpWebApp/Register HTTP/1.1" 404 773
0:0:0:0:0:0:0:1 - - [05/Jan/2024:10:53:43 +0530] "GET /EmpWebApp/RegisterServlet HTTP/1.1" 500 1250
0:0:0:0:0:0:0:1 - - [05/Jan/2024:10:58:43 +0530] "GET /EmpWebApp/WEB-INF/classes/com/db/Dbconnection.java HTTP/1.1" 404 682
0:0:0:0:0:0:0:1 - - [05/Jan/2024:10:59:52 +0530] "GET /EmpWebApp/Register.html HTTP/1.1" 200 1039
0:0:0:0:0:0:0:1 - - [05/Jan/2024:11:00:21 +0530] "POST /EmpWebApp/Register HTTP/1.1" 404 773
127.0.0.1 - - [05/Jan/2024:11:07:47 +0530] "GET / HTTP/1.1" 404 751
0:0:0:0:0:0:0:1 - - [05/Jan/2024:11:07:48 +0530] "GET /EmpWebApp/WEB-INF/classes/com/dao/EmployeeDAO.java HTTP/1.1" 404 682
0:0:0:0:0:0:0:1 - - [05/Jan/2024:11:08:25 +0530] "GET /EmpWebApp/Login.html HTTP/1.1" 200 529
0:0:0:0:0:0:0:1 - - [05/Jan/2024:11:08:39 +0530] "GET /EmpWebApp/Register.html HTTP/1.1" 200 1046
0:0:0:0:0:0:0:1 - - [05/Jan/2024:11:27:22 +0530] "POST /EmpWebApp/RegisterServlet HTTP/1.1" 200 661
0:0:0:0:0:0:0:1 - - [05/Jan/2024:11:27:37 +0530] "POST /EmpWebApp/LoginServlet HTTP/1.1" 200 222
0:0:0:0:0:0:0:1 - - [05/Jan/2024:11:27:40 +0530] "GET /EmpWebApp/Logout HTTP/1.1" 200 529
127.0.0.1 - - [05/Jan/2024:12:16:26 +0530] "GET / HTTP/1.1" 404 751
0:0:0:0:0:0:0:1 - - [05/Jan/2024:12:16:27 +0530] "GET /EmpWebApp/WEB-INF/classes/com/dao/EmployeeDAO.java HTTP/1.1" 404 682
0:0:0:0:0:0:0:1 - - [05/Jan/2024:12:16:55 +0530] "GET /EmpWebApp/Register.html HTTP/1.1" 304 -
0:0:0:0:0:0:0:1 - - [05/Jan/2024:12:17:01 +0530] "GET /EmpWebApp/Login.html HTTP/1.1" 304 -
0:0:0:0:0:0:0:1 - - [05/Jan/2024:12:17:12 +0530] "POST /EmpWebApp/LoginServlet HTTP/1.1" 200 645
0:0:0:0:0:0:0:1 - - [05/Jan/2024:12:17:30 +0530] "POST /EmpWebApp/LoginServlet HTTP/1.1" 200 645
0:0:0:0:0:0:0:1 - - [05/Jan/2024:12:18:25 +0530] "POST /EmpWebApp/RegisterServlet HTTP/1.1" 200 661
0:0:0:0:0:0:0:1 - - [05/Jan/2024:12:18:38 +0530] "POST /EmpWebApp/LoginServlet HTTP/1.1" 200 223
0:0:0:0:0:0:0:1 - - [05/Jan/2024:12:18:58 +0530] "GET /EmpWebApp/HRHomePage HTTP/1.1" 200 309
0:0:0:0:0:0:0:1 - - [05/Jan/2024:12:19:01 +0530] "GET /EmpWebApp/GetAllEmps HTTP/1.1" 200 972
127.0.0.1 - - [05/Jan/2024:13:06:36 +0530] "GET / HTTP/1.1" 404 751
0:0:0:0:0:0:0:1 - - [05/Jan/2024:13:06:37 +0530] "GET /EmpWebApp/HRHomePage HTTP/1.1" 200 332
0:0:0:0:0:0:0:1 - - [05/Jan/2024:13:06:39 +0530] "GET /EmpWebApp/GetEmpById.html HTTP/1.1" 200 392
0:0:0:0:0:0:0:1 - - [05/Jan/2024:13:06:44 +0530] "POST /EmpWebApp/GetEmpById HTTP/1.1" 200 583
