INDEX VERSION 1.3+C:\FSD-56\1.Adv java\workspace2\.metadata\.plugins\org.eclipse.wst.jsdt.core\indexes
2110915318.index
662242847.index
348572682.index
3268989307.index
1051148829.index
3894182363.index
2889170302.index
